{
  "main": {
    "id": "e244ba273d44d6c5",
    "type": "split",
    "children": [
      {
        "id": "fdbdc1ced6a670ff",
        "type": "tabs",
        "children": [
          {
            "id": "9708c1e84e5b893e",
            "type": "leaf",
            "state": {
              "type": "markdown",
              "state": {
                "file": "Math/Calculus/Surface_Integral.md",
                "mode": "source",
                "source": false
              },
              "icon": "lucide-file",
              "title": "Surface_Integral"
            }
          }
        ]
      }
    ],
    "direction": "vertical"
  },
  "left": {
    "id": "310a10d51755a93c",
    "type": "split",
    "children": [
      {
        "id": "e063a276366c3130",
        "type": "tabs",
        "children": [
          {
            "id": "5f6945f5ed9f1d9f",
            "type": "leaf",
            "state": {
              "type": "file-explorer",
              "state": {
                "sortOrder": "alphabetical"
              },
              "icon": "lucide-folder-closed",
              "title": "Files"
            }
          },
          {
            "id": "250a29920a3b58bd",
            "type": "leaf",
            "state": {
              "type": "search",
              "state": {
                "query": "tag:#Lagrange_Polynomial",
                "matchingCase": false,
                "explainSearch": false,
                "collapseAll": false,
                "extraContext": false,
                "sortOrder": "alphabetical"
              },
              "icon": "lucide-search",
              "title": "Search"
            }
          },
          {
            "id": "e3a2cc31082f898f",
            "type": "leaf",
            "state": {
              "type": "bookmarks",
              "state": {},
              "icon": "lucide-bookmark",
              "title": "Bookmarks"
            }
          }
        ]
      }
    ],
    "direction": "horizontal",
    "width": 300
  },
  "right": {
    "id": "6a51a3b82714a671",
    "type": "split",
    "children": [
      {
        "id": "b223469ee5f23660",
        "type": "tabs",
        "children": [
          {
            "id": "5ace3cb4c20749fb",
            "type": "leaf",
            "state": {
              "type": "backlink",
              "state": {
                "file": "petscNotes/PETSc Utilities.md",
                "collapseAll": false,
                "extraContext": false,
                "sortOrder": "alphabetical",
                "showSearch": false,
                "searchQuery": "",
                "backlinkCollapsed": false,
                "unlinkedCollapsed": true
              },
              "icon": "links-coming-in",
              "title": "Backlinks for PETSc Utilities"
            }
          },
          {
            "id": "f1294d89eedaf77e",
            "type": "leaf",
            "state": {
              "type": "outgoing-link",
              "state": {
                "file": "petscNotes/PETSc Utilities.md",
                "linksCollapsed": false,
                "unlinkedCollapsed": true
              },
              "icon": "links-going-out",
              "title": "Outgoing links from PETSc Utilities"
            }
          },
          {
            "id": "7db80d1b88bcb1e9",
            "type": "leaf",
            "state": {
              "type": "tag",
              "state": {
                "sortOrder": "frequency",
                "useHierarchy": true
              },
              "icon": "lucide-tags",
              "title": "Tags"
            }
          },
          {
            "id": "b60f137c1d9ad7b0",
            "type": "leaf",
            "state": {
              "type": "outline",
              "state": {
                "file": "petscNotes/PETSc Utilities.md"
              },
              "icon": "lucide-list",
              "title": "Outline of PETSc Utilities"
            }
          },
          {
            "id": "c7931fdbaaf95859",
            "type": "leaf",
            "state": {
              "type": "online.larslockefeer.obsidian-plugin-todo",
              "state": {},
              "icon": "checkmark",
              "title": "Todo"
            }
          }
        ],
        "currentTab": 4
      }
    ],
    "direction": "horizontal",
    "width": 200,
    "collapsed": true
  },
  "left-ribbon": {
    "hiddenItems": {
      "switcher:Open quick switcher": false,
      "graph:Open graph view": false,
      "canvas:Create new canvas": false,
      "daily-notes:Open today's daily note": false,
      "templates:Insert template": false,
      "command-palette:Open command palette": false,
      "table-editor-obsidian:Advanced Tables Toolbar": false,
      "templater-obsidian:Templater": false,
      "obsidian-full-calendar:Open Full Calendar": false,
      "obsidian-excalidraw-plugin:Create new drawing": false
    }
  },
  "active": "9708c1e84e5b893e",
  "lastOpenFiles": [
    "Excalidraw/surfaceIntegral.md",
    "Math/Calculus/Surface_Integral.md",
    "ablate/Add GPU function to Ablate.md",
    "petscNotes/PETSc_Utilities.md",
    "Math/Real_Analysis/Sequence.md",
    "Tasks Index.md",
    "Math/Tensors/Tensors.md",
    "Excalidraw/test.excalidraw.md",
    "AIMedicineProject/Overview.md",
    "Untitled 1.md",
    "Untitled.md",
    "Math/Real_Analysis/The_Way_of_Analysis.md",
    "().md",
    "Math/numericalMethods/Lagrange_Polynomial.md",
    "Math/numericalMethods/Numerical_Quadrature.md",
    "Math/Calculus/Integration_by_Parts.md",
    "libCEEDNotes/libCeedPetscInterface.md",
    "libCEEDNotes/libCeedPetscInterface.pdf",
    "petscNotes/PETSc_Build_System.md",
    "petscNotes/PETSc_Index.md",
    "petscNotes/DMPlex_Notes.md",
    "cuda/acceleratingAppsWithCuda.md",
    "Excalidraw/tensorBasisTransform.md",
    "Excalidraw/tensorExampleInvariant.md",
    "Excalidraw/download_1.jpg",
    "Excalidraw/cropped_download_0.md",
    "Excalidraw/download_0.jpg",
    "Excalidraw/cropped_download.md",
    "Excalidraw/download.jpg",
    "Math/Tensors",
    "FEMCourse",
    "Math/Archimedean_property.md",
    "AIMedicineProject",
    "Math/Abstract_Algebra",
    "Math/Real_Analysis",
    "Excalidraw/Scripts/Downloaded/Golden Ratio.svg",
    "Excalidraw/Scripts/Downloaded/Text Arch.svg",
    "Excalidraw/Scripts/Downloaded/Slideshow.svg",
    "Excalidraw/Scripts/Downloaded/Boolean Operations.svg",
    "Excalidraw/Scripts/Downloaded/Normalize Selected Arrows.svg",
    "Excalidraw/Scripts/Downloaded/ExcaliAI.svg",
    "Excalidraw/Scripts/Downloaded/Excalidraw Writing Machine.svg",
    "Excalidraw/Scripts/Downloaded",
    "Excalidraw/Scripts",
    "Excalidraw",
    "Math/Relation",
    "Untitled.canvas"
  ]
}